<?xml version="1.0" standalone="no"?>
<!DOCTYPE svg PUBLIC "-//W3C//DTD SVG 1.1//EN" "http://www.w3.org/Graphics/SVG/1.1/DTD/svg11.dtd" >
<svg xmlns="http://www.w3.org/2000/svg" xmlns:xlink="http://www.w3.org/1999/xlink" version="1.1">
<metadata>
Created by FontForge 20150824 at Tue Oct 11 07:27:21 2016
 By Everything Fonts
Copyright (c) 2014 by Ion Lucin. All rights reserved.
</metadata>
<defs>
<font id="BIGJOHN" horiz-adv-x="650" >
  <font-face 
    font-family="BIGJOHN"
    font-weight="400"
    font-stretch="normal"
    units-per-em="1000"
    panose-1="2 0 0 0 0 0 0 0 0 0"
    ascent="750"
    descent="-250"
    x-height="750"
    cap-height="750"
    bbox="5 -158 1236 815"
    underline-thickness="50"
    underline-position="-150"
    unicode-range="U+0020-201D"
  />
<missing-glyph horiz-adv-x="450" 
 />
    <glyph glyph-name=".notdef" horiz-adv-x="450" 
 />
    <glyph glyph-name=".null" horiz-adv-x="0" 
 />
    <glyph glyph-name="nonmarkingreturn" horiz-adv-x="333" 
 />
    <glyph glyph-name="space" unicode=" " horiz-adv-x="450" 
 />
    <glyph glyph-name="exclam" unicode="!" horiz-adv-x="300" 
d="M70 79q0 33 23 56.5t56 23.5t56 -23.5t23 -56.5t-23 -56t-56 -23t-56 23t-23 56zM70 200v550h158v-550h-158z" />
    <glyph glyph-name="dollar" unicode="$" horiz-adv-x="833" 
d="M250 -52v64q-70 23 -114 83.5t-44 138.5h175q0 -24 16.5 -40.5t39.5 -16.5t40 16.5t17 39.5t-17 40t-40 17q-96 0 -163 67t-67 163q0 76 43.5 136t113.5 83v76h156v-79q66 -25 107 -84t41 -131h-174q0 23 -17 40t-40 17t-39.5 -17t-16.5 -40t16.5 -39.5t39.5 -16.5
q54 0 101.5 -24t79.5 -65q50 -63 50 -145q0 -73 -41 -131.5t-107 -83.5v-68h-156z" />
    <glyph glyph-name="percent" unicode="%" horiz-adv-x="833" 
d="M142 0l346 750h176l-347 -750h-175zM508 78q0 32 23.5 56.5t55.5 24.5t55.5 -24.5t23.5 -56.5t-23.5 -55t-55.5 -23t-55.5 23t-23.5 55zM142 669q0 32 23.5 56.5t55.5 24.5t55.5 -24.5t23.5 -56.5t-23.5 -55t-55.5 -23t-55.5 23t-23.5 55z" />
    <glyph glyph-name="ampersand" unicode="&#x26;" horiz-adv-x="833" 
d="M214 454l-3 6q-3 5 -8.5 15t-10.5 22.5t-8.5 30t-3.5 34.5q0 26 10.5 56t31.5 61t60 51t89 20t88 -21.5t57.5 -54t28.5 -62.5t9 -55q0 -75 -67 -140l-102 -102q-35 -31 -35 -67q0 -32 23 -61.5t62 -29.5q18 0 34 6.5t23 12.5l8 7l111 111l183 -183l-110 -112l-72 72
q-2 -3 -6.5 -7.5t-21 -17t-34.5 -22t-48.5 -17t-62.5 -7.5q-93 0 -170 68t-77 169q0 52 21 99.5t41 69.5l21 21l114 116q7 8 7 19q0 10 -8 18t-19 8q-5 0 -11 -2t-9 -4l-3 -2q-4 -4 -10.5 -10t-23.5 -22.5t-32.5 -31.5t-31.5 -30t-25 -24z" />
    <glyph glyph-name="parenleft" unicode="(" horiz-adv-x="470" 
d="M423 158v-158q-156 0 -265.5 109t-109.5 265t109.5 266t265.5 110v-159q-90 0 -153 -63t-63 -154q0 -90 63 -153t153 -63z" />
    <glyph glyph-name="parenright" unicode=")" horiz-adv-x="470" 
d="M48 0v158q90 0 153 63t63 153q0 91 -63 154t-153 63v159q156 0 265.5 -110t109.5 -266t-109.5 -265t-265.5 -109z" />
    <glyph glyph-name="plus" unicode="+" 
d="M89 282v158h157v158h159v-158h157v-158h-157v-157h-159v157h-157z" />
    <glyph glyph-name="comma" unicode="," horiz-adv-x="240" 
d="M106 -82v82q-32 0 -55.5 22.5t-23.5 54.5t23.5 56.5t55.5 24.5t55.5 -24.5t23.5 -56.5v-10t-3.5 -25t-11 -37.5t-24 -42.5t-40.5 -44z" />
    <glyph glyph-name="hyphen" unicode="-" horiz-adv-x="461" 
d="M29 342v158h394v-158h-394z" />
    <glyph glyph-name="period" unicode="." horiz-adv-x="240" 
d="M41 81q0 34 22.5 56.5t56.5 22.5t56.5 -22.5t22.5 -56.5t-22.5 -57.5t-56.5 -23.5t-56.5 23.5t-22.5 57.5z" />
    <glyph glyph-name="slash" unicode="/" horiz-adv-x="570" 
d="M22 0l346 750h176l-347 -750h-175z" />
    <glyph glyph-name="zero" unicode="0" 
d="M79 245v260q0 101 71.5 173t173.5 72q101 0 173.5 -72t72.5 -174v-259q0 -102 -72 -173.5t-174 -71.5t-173.5 71.5t-71.5 173.5zM236 504v-258q0 -37 25.5 -62.5t62.5 -25.5t62.5 25.5t25.5 62.5v257q0 37 -25.5 62.5t-62.5 25.5t-62.5 -25.5t-25.5 -61.5z" />
    <glyph glyph-name="one" unicode="1" horiz-adv-x="520" 
d="M171 0v750h197v-750h-197z" />
    <glyph glyph-name="two" unicode="2" 
d="M67 0l302 429q33 40 33 77q0 31 -25.5 58.5t-63.5 27.5q-36 0 -61.5 -26t-25.5 -63h-161q0 100 71 173.5t183 73.5q105 0 174 -76.5t69 -173.5q0 -35 -11 -69.5t-23 -51.5l-11 -17l-143 -203h212v-159h-519z" />
    <glyph glyph-name="three" unicode="3" 
d="M148 71l28 29l56 56l28 28q0 -2 6.5 -7.5t24 -12.5t38.5 -7q35 0 58 26t23 59q0 35 -22.5 63t-59.5 28q-24 0 -41 -6.5t-22 -13.5l-5 -7l-112 113l120 173h-155v158h459l-188 -267q7 -2 19.5 -6t44 -22.5t55.5 -43t44 -69.5t20 -99q0 -107 -73.5 -175t-164.5 -68
q-32 0 -62 7.5t-50.5 17.5t-37 20.5t-24 17.5t-7.5 8z" />
    <glyph glyph-name="four" unicode="4" 
d="M506 750v-432h138v-159h-138v-159h-158v159h-343v160l302 431h199zM198 318h150v214z" />
    <glyph glyph-name="five" unicode="5" 
d="M325 338h-245v412h473v-159h-315v-101h87q101 0 173 -72t72 -173t-72 -173t-173 -72t-173 72t-72 173v5h157q0 -37 25.5 -62t62.5 -25q36 0 61.5 25.5t25.5 62.5q0 36 -25.5 61.5t-61.5 25.5z" />
    <glyph glyph-name="six" unicode="6" 
d="M78 247q0 71 38 134l214 369h184l-150 -259q88 -14 148 -83.5t60 -160.5q0 -102 -72.5 -174.5t-174.5 -72.5t-174.5 72.5t-72.5 174.5zM237 247q0 -37 25.5 -62.5t62.5 -25.5q36 0 62 25.5t26 62.5q0 36 -26 62t-62 26q-37 0 -62.5 -26t-25.5 -62z" />
    <glyph glyph-name="seven" unicode="7" 
d="M34 750h580v-161l-340 -589h-182l341 590h-399v160z" />
    <glyph glyph-name="eight" unicode="8" 
d="M116 541q0 86 61 147.5t147 61.5t147.5 -61.5t61.5 -147.5q0 -66 -38 -120q75 -72 75 -176q0 -102 -72 -173.5t-174 -71.5t-173.5 71.5t-71.5 173.5q0 105 74 176q-37 55 -37 120zM237 245q0 -36 25.5 -61.5t61.5 -25.5t62 25.5t26 61.5q0 35 -25 60.5t-60 27.5h-7
q-35 -2 -59 -27.5t-24 -60.5zM275 540q0 -21 14 -35t35 -14t35.5 14t14.5 35t-14.5 35.5t-35.5 14.5t-35 -14.5t-14 -35.5z" />
    <glyph glyph-name="nine" unicode="9" 
d="M136 0l151 263q-88 14 -147 82.5t-59 159.5q0 101 72 173t173 72t173 -72t72 -173q0 -67 -35 -126l-218 -379h-182zM238 502q0 -38 25 -63t63 -25q37 0 62.5 25.5t25.5 62.5t-25.5 62.5t-62.5 25.5t-62.5 -25.5t-25.5 -62.5z" />
    <glyph glyph-name="colon" unicode=":" horiz-adv-x="268" 
d="M61 316q0 33 23.5 56.5t56.5 23.5t56.5 -23.5t23.5 -56.5t-23.5 -56.5t-56.5 -23.5t-56.5 23.5t-23.5 56.5zM61 80q0 33 23.5 56.5t56.5 23.5t56.5 -23.5t23.5 -56.5t-23.5 -56.5t-56.5 -23.5t-56.5 23.5t-23.5 56.5z" />
    <glyph glyph-name="semicolon" unicode=";" horiz-adv-x="268" 
d="M61 316q0 33 23.5 56.5t56.5 23.5t56.5 -23.5t23.5 -56.5t-23.5 -56.5t-56.5 -23.5t-56.5 23.5t-23.5 56.5zM140 -82v82q-32 0 -55.5 22.5t-23.5 54.5t23.5 56.5t55.5 24.5t55.5 -24.5t23.5 -56.5v-10t-3.5 -25t-11 -37.5t-24 -42.5t-40.5 -44z" />
    <glyph glyph-name="equal" unicode="=" 
d="M117 413v158h394v-158h-394zM117 98v157h394v-157h-394z" />
    <glyph glyph-name="question" unicode="?" horiz-adv-x="550" 
d="M178 192v218h88q37 0 62 25.5t25 63.5q0 37 -25 62t-62 25t-61.5 -24t-26.5 -59v-4h-157v6q0 101 72 173t173 72t173 -72t72 -173q0 -82 -49 -147t-126 -88v-78h-158zM177 79q0 34 22.5 56t57.5 22q34 0 56 -22t22 -56t-22 -56.5t-56 -22.5q-35 0 -57.5 22.5t-22.5 56.5z
" />
    <glyph glyph-name="A" unicode="A" horiz-adv-x="842" 
d="M223 0h-197l350 750h89l353 -750h-197l-46 98h-307zM422 429l-77 -165h153z" />
    <glyph glyph-name="B" unicode="B" horiz-adv-x="708" 
d="M273 162h132q27 0 46 19t19 46t-19.5 46t-45.5 19h-132v-130zM273 457h95q27 0 46 19t19 46t-19 46t-46 19h-95v-130zM446 0h-370v750h331q90 0 156 -66.5t66 -156.5q0 -74 -48 -135q39 -31 62 -76.5t23 -95.5q0 -89 -65.5 -154.5t-154.5 -65.5z" />
    <glyph glyph-name="C" unicode="C" horiz-adv-x="773" 
d="M697 641l-138 -139q-49 49 -126 49t-126.5 -49.5t-49.5 -126.5t49.5 -126.5t126.5 -49.5q78 0 126 50l140 -138q-111 -111 -266 -111t-265 110t-110 265t110 265t265 110t264 -109z" />
    <glyph glyph-name="D" unicode="D" horiz-adv-x="789" 
d="M76 0v750h278q155 0 265 -110t110 -265t-110 -265t-265 -110h-278zM272 549v-355h83q73 0 125.5 52t52.5 126q0 73 -52.5 125t-125.5 52h-83z" />
    <glyph glyph-name="E" unicode="E" horiz-adv-x="607" 
d="M76 0v750h466v-163h-269v-122h238v-166h-238v-138h269v-161h-466z" />
    <glyph glyph-name="F" unicode="F" horiz-adv-x="611" 
d="M76 0v750h470v-162h-273v-122h241v-167h-241v-299h-197z" />
    <glyph glyph-name="G" unicode="G" horiz-adv-x="846" 
d="M439 403h375v-28q0 -155 -110 -265t-265 -110t-264.5 110t-109.5 265t109.5 265t264.5 110q153 0 264 -109l-139 -138q-53 50 -125 50t-124.5 -51t-52.5 -127q0 -75 53 -126.5t124 -51.5q44 0 83 20t62 54h-145v132z" />
    <glyph glyph-name="H" unicode="H" horiz-adv-x="783" 
d="M76 750h197v-267h238v267h197v-750h-197v286h-238v-286h-197v750z" />
    <glyph glyph-name="I" unicode="I" horiz-adv-x="347" 
d="M75 0v750h197v-750h-197z" />
    <glyph glyph-name="J" unicode="J" horiz-adv-x="600" 
d="M525 750v-494q-2 -122 -88 -189t-205 -67q-37 0 -103 18t-110 60q72 72 143 145q25 -25 77 -25q39 0 64 23.5t25 63.5v465h197z" />
    <glyph glyph-name="K" unicode="K" horiz-adv-x="858" 
d="M525 750h276l-342 -343l406 -407h-278l-267 266l-47 -48v-218h-197v750h197v-253z" />
    <glyph glyph-name="L" unicode="L" horiz-adv-x="608" 
d="M76 0v750h197v-552h270v-198h-467z" />
    <glyph glyph-name="M" unicode="M" horiz-adv-x="940" 
d="M165 750l306 -278l305 278h89v-750h-198v385l-196 -179l-197 178v-384h-198v750h89z" />
    <glyph glyph-name="N" unicode="N" horiz-adv-x="783" 
d="M708 0h-81l-354 355v-355h-197v750h80l355 -354v354h197v-750z" />
    <glyph glyph-name="O" unicode="O" horiz-adv-x="871" 
d="M61 374q0 155 109.5 265.5t264.5 110.5t265 -110.5t110 -265.5t-110 -264.5t-265 -109.5t-264.5 109.5t-109.5 264.5zM614 375q0 74 -52.5 126.5t-126.5 52.5t-126 -52.5t-52 -126.5t52.5 -126.5t125.5 -52.5q74 0 126.5 52.5t52.5 126.5z" />
    <glyph glyph-name="P" unicode="P" horiz-adv-x="698" 
d="M273 584v-215h122q45 0 76.5 31t31.5 76t-31.5 76.5t-76.5 31.5h-122zM76 0v750h316q114 0 195 -81t81 -195q0 -113 -80 -194t-192 -81h-123v-199h-197z" />
    <glyph glyph-name="Q" unicode="Q" horiz-adv-x="961" 
d="M951 0h-275l-52 51q-85 -51 -188 -51q-155 0 -265 110t-110 265t110 265t265 110t265 -110t110 -265q0 -100 -50 -186zM258 374q0 -75 51.5 -126.5t126.5 -51.5q22 0 38 4l-92 92l139 138l90 -90q3 17 3 34q0 75 -51.5 126.5t-126.5 51.5t-126.5 -51.5t-51.5 -126.5z" />
    <glyph glyph-name="R" unicode="R" horiz-adv-x="759" 
d="M738 0h-227l-116 199h-122v-199h-197v750h316q114 0 195 -81t81 -195q0 -120 -89 -202zM273 584v-215h122q45 0 76.5 31t31.5 76t-31.5 76.5t-76.5 31.5h-122z" />
    <glyph glyph-name="S" unicode="S" horiz-adv-x="590" 
d="M526 520h-174q0 23 -17 40t-40 17t-39.5 -17t-16.5 -40t16.5 -39.5t39.5 -16.5q54 0 101.5 -24t79.5 -65q50 -63 50 -145q0 -96 -67.5 -163t-163.5 -67q-97 0 -164 67t-67 166h175q0 -24 16.5 -40.5t39.5 -16.5t40 16.5t17 39.5t-17 40t-40 17q-96 0 -163 67t-67 163
t67 163.5t163 67.5t163.5 -67t67.5 -163z" />
    <glyph glyph-name="T" unicode="T" horiz-adv-x="711" 
d="M60 555v196h591v-196h-199v-555h-197v555h-195z" />
    <glyph glyph-name="U" unicode="U" horiz-adv-x="741" 
d="M273 750v-451q0 -41 28.5 -69.5t69.5 -28.5t69.5 28.5t28.5 69.5v451h198v-454q0 -123 -86.5 -209.5t-209.5 -86.5q-124 0 -210 86t-86 210v454h198z" />
    <glyph glyph-name="V" unicode="V" horiz-adv-x="809" 
d="M603 751h196l-349 -751h-90l-350 751h198l197 -427z" />
    <glyph glyph-name="W" unicode="W" horiz-adv-x="1246" 
d="M747 0l-125 267l-124 -267h-142l-346 750h216l212 -459l143 312h83l143 -312l213 459h216l-347 -750h-142z" />
    <glyph glyph-name="X" unicode="X" horiz-adv-x="809" 
d="M535 750h240l-250 -359l275 -391h-240l-155 220l-156 -220h-240l275 391l-250 359h240l131 -187z" />
    <glyph glyph-name="Y" unicode="Y" horiz-adv-x="762" 
d="M753 750l-274 -474v-276h-195v276l-274 474h227l144 -250l145 250h227z" />
    <glyph glyph-name="Z" unicode="Z" horiz-adv-x="710" 
d="M685 750l-319 -553h290v-197h-631l319 552h-300v198h641z" />
    <glyph glyph-name="bracketleft" unicode="[" horiz-adv-x="340" 
d="M52 0v750h237v-156h-79v-434h79v-160h-237z" />
    <glyph glyph-name="backslash" unicode="\" horiz-adv-x="570" 
d="M560 0h-175l-347 750h176z" />
    <glyph glyph-name="bracketright" unicode="]" horiz-adv-x="340" 
d="M289 750v-750h-237v160h79v434h-79v156h237z" />
    <glyph glyph-name="underscore" unicode="_" horiz-adv-x="500" 
d="M53 -158v158h394v-158h-394z" />
    <glyph glyph-name="a" unicode="a" horiz-adv-x="842" 
d="M223 0h-197l350 750h89l353 -750h-197l-46 98h-307zM422 429l-77 -165h153z" />
    <glyph glyph-name="b" unicode="b" horiz-adv-x="708" 
d="M273 162h132q27 0 46 19t19 46t-19.5 46t-45.5 19h-132v-130zM273 457h95q27 0 46 19t19 46t-19 46t-46 19h-95v-130zM446 0h-370v750h331q90 0 156 -66.5t66 -156.5q0 -74 -48 -135q39 -31 62 -76.5t23 -95.5q0 -89 -65.5 -154.5t-154.5 -65.5z" />
    <glyph glyph-name="c" unicode="c" horiz-adv-x="773" 
d="M697 641l-138 -139q-49 49 -126 49t-126.5 -49.5t-49.5 -126.5t49.5 -126.5t126.5 -49.5q78 0 126 50l140 -138q-111 -111 -266 -111t-265 110t-110 265t110 265t265 110t264 -109z" />
    <glyph glyph-name="d" unicode="d" horiz-adv-x="789" 
d="M76 0v750h278q155 0 265 -110t110 -265t-110 -265t-265 -110h-278zM272 551v-355h83q73 0 125.5 52t52.5 126q0 73 -52.5 125t-125.5 52h-83z" />
    <glyph glyph-name="e" unicode="e" horiz-adv-x="607" 
d="M76 0v750h466v-163h-269v-122h238v-166h-238v-138h269v-161h-466z" />
    <glyph glyph-name="f" unicode="f" horiz-adv-x="611" 
d="M76 0v750h470v-162h-273v-122h241v-167h-241v-299h-197z" />
    <glyph glyph-name="g" unicode="g" horiz-adv-x="846" 
d="M439 403h375v-28q0 -155 -110 -265t-265 -110t-264.5 110t-109.5 265t109.5 265t264.5 110q153 0 264 -109l-139 -138q-53 50 -125 50t-124.5 -51t-52.5 -127q0 -75 53 -126.5t124 -51.5q44 0 83 20t62 54h-145v132z" />
    <glyph glyph-name="h" unicode="h" horiz-adv-x="783" 
d="M76 750h197v-267h238v267h197v-750h-197v286h-238v-286h-197v750z" />
    <glyph glyph-name="i" unicode="i" horiz-adv-x="347" 
d="M75 0v750h197v-750h-197z" />
    <glyph glyph-name="j" unicode="j" horiz-adv-x="600" 
d="M525 750v-494q-2 -122 -88 -189t-205 -67q-37 0 -103 18t-110 60q72 72 143 145q25 -25 77 -25q39 0 64 23.5t25 63.5v465h197z" />
    <glyph glyph-name="k" unicode="k" horiz-adv-x="858" 
d="M525 750h276l-342 -343l406 -407h-278l-267 266l-47 -48v-218h-197v750h197v-253z" />
    <glyph glyph-name="l" unicode="l" horiz-adv-x="608" 
d="M76 0v750h197v-552h270v-198h-467z" />
    <glyph glyph-name="m" unicode="m" horiz-adv-x="940" 
d="M165 750l306 -278l305 278h89v-750h-198v385l-196 -179l-197 178v-384h-198v750h89z" />
    <glyph glyph-name="n" unicode="n" horiz-adv-x="783" 
d="M708 0h-81l-354 355v-355h-197v750h80l355 -354v354h197v-750z" />
    <glyph glyph-name="o" unicode="o" horiz-adv-x="871" 
d="M61 374q0 155 109.5 265.5t264.5 110.5t265 -110.5t110 -265.5t-110 -264.5t-265 -109.5t-264.5 109.5t-109.5 264.5zM614 375q0 74 -52.5 126.5t-126.5 52.5t-126 -52.5t-52 -126.5t52.5 -126.5t125.5 -52.5q74 0 126.5 52.5t52.5 126.5z" />
    <glyph glyph-name="p" unicode="p" horiz-adv-x="698" 
d="M273 584v-215h122q45 0 76.5 31t31.5 76t-31.5 76.5t-76.5 31.5h-122zM76 0v750h316q114 0 195 -81t81 -195q0 -113 -80 -194t-192 -81h-123v-199h-197z" />
    <glyph glyph-name="q" unicode="q" horiz-adv-x="961" 
d="M951 0h-275l-52 51q-85 -51 -188 -51q-155 0 -265 110t-110 265t110 265t265 110t265 -110t110 -265q0 -100 -50 -186zM258 374q0 -75 51.5 -126.5t126.5 -51.5q22 0 38 4l-92 92l139 138l90 -90q3 17 3 34q0 75 -51.5 126.5t-126.5 51.5t-126.5 -51.5t-51.5 -126.5z" />
    <glyph glyph-name="r" unicode="r" horiz-adv-x="759" 
d="M738 0h-227l-116 199h-122v-199h-197v750h316q114 0 195 -81t81 -195q0 -120 -89 -202zM273 584v-215h122q45 0 76.5 31t31.5 76t-31.5 76.5t-76.5 31.5h-122z" />
    <glyph glyph-name="s" unicode="s" horiz-adv-x="590" 
d="M526 520h-174q0 23 -17 40t-40 17t-39.5 -17t-16.5 -40t16.5 -39.5t39.5 -16.5q54 0 101.5 -24t79.5 -65q50 -63 50 -145q0 -96 -67.5 -163t-163.5 -67q-97 0 -164 67t-67 166h175q0 -24 16.5 -40.5t39.5 -16.5t40 16.5t17 39.5t-17 40t-40 17q-96 0 -163 67t-67 163
t67 163.5t163 67.5t163.5 -67t67.5 -163z" />
    <glyph glyph-name="t" unicode="t" horiz-adv-x="711" 
d="M60 555v196h591v-196h-199v-555h-197v555h-195z" />
    <glyph glyph-name="u" unicode="u" horiz-adv-x="741" 
d="M273 750v-451q0 -41 28.5 -69.5t69.5 -28.5t69.5 28.5t28.5 69.5v451h198v-454q0 -123 -86.5 -209.5t-209.5 -86.5q-124 0 -210 86t-86 210v454h198z" />
    <glyph glyph-name="v" unicode="v" horiz-adv-x="809" 
d="M603 751h196l-349 -751h-90l-350 751h198l197 -427z" />
    <glyph glyph-name="w" unicode="w" horiz-adv-x="1246" 
d="M747 0l-125 267l-124 -267h-142l-346 750h216l212 -459l143 312h83l143 -312l213 459h216l-347 -750h-142z" />
    <glyph glyph-name="x" unicode="x" horiz-adv-x="809" 
d="M535 750h240l-250 -359l275 -391h-240l-155 220l-156 -220h-240l275 391l-250 359h240l131 -187z" />
    <glyph glyph-name="y" unicode="y" horiz-adv-x="762" 
d="M753 750l-274 -474v-276h-195v276l-274 474h227l144 -250l145 250h227z" />
    <glyph glyph-name="z" unicode="z" horiz-adv-x="710" 
d="M685 750l-319 -553h290v-197h-631l319 552h-300v198h641z" />
    <glyph glyph-name="exclamdown" unicode="&#xa1;" horiz-adv-x="300" 
d="M70 671q0 33 23 56t56 23t56 -23t23 -56t-23 -56.5t-56 -23.5t-56 23.5t-23 56.5zM70 0v550h158v-550h-158z" />
    <glyph glyph-name="questiondown" unicode="&#xbf;" horiz-adv-x="550" 
d="M372 558v-218h-88q-37 0 -62 -25.5t-25 -63.5q0 -37 25 -62t62 -25t61.5 24t26.5 59v4h157v-6q0 -101 -72 -173t-173 -72t-173 72t-72 173q0 82 49 147t126 88v78h158zM373 671q0 -34 -22.5 -56t-57.5 -22q-34 0 -56 22t-22 56t22 56.5t56 22.5q35 0 57.5 -22.5
t22.5 -56.5z" />
    <glyph glyph-name="quoteleft" unicode="&#x2018;" horiz-adv-x="284" 
d="M142 750v-82q32 0 55.5 -22.5t23.5 -54.5t-23.5 -56.5t-55.5 -24.5t-55.5 24.5t-23.5 56.5v10t3.5 25t11 37.5t24 42.5t40.5 44z" />
    <glyph glyph-name="quoteright" unicode="&#x2019;" horiz-adv-x="284" 
d="M142 510v82q-32 0 -55.5 22.5t-23.5 54.5t23.5 56.5t55.5 24.5t55.5 -24.5t23.5 -56.5v-10t-3.5 -25t-11 -37.5t-24 -42.5t-40.5 -44z" />
    <glyph glyph-name="quotedblleft" unicode="&#x201c;" horiz-adv-x="500" 
d="M337 750v-82q32 0 55.5 -22.5t23.5 -54.5t-23.5 -56.5t-55.5 -24.5t-55.5 24.5t-23.5 56.5v10t3.5 25t11 37.5t24 42.5t40.5 44zM160 750v-82q32 0 55.5 -22.5t23.5 -54.5t-23.5 -56.5t-55.5 -24.5t-55.5 24.5t-23.5 56.5v10t3.5 25t11 37.5t24 42.5t40.5 44z" />
    <glyph glyph-name="quotedblright" unicode="&#x201d;" horiz-adv-x="500" 
d="M160 510v82q-32 0 -55.5 22.5t-23.5 54.5t23.5 56.5t55.5 24.5t55.5 -24.5t23.5 -56.5v-10t-3.5 -25t-11 -37.5t-24 -42.5t-40.5 -44zM337 510v82q-32 0 -55.5 22.5t-23.5 54.5t23.5 56.5t55.5 24.5t55.5 -24.5t23.5 -56.5v-10t-3.5 -25t-11 -37.5t-24 -42.5t-40.5 -44z
" />
    <hkern u1="&#x2c;" u2="V" k="40" />
    <hkern u1="&#x2e;" u2="V" k="40" />
    <hkern u1="&#x37;" u2="&#x2c;" k="40" />
    <hkern u1="B" u2="y" k="30" />
    <hkern u1="B" u2="w" k="30" />
    <hkern u1="B" u2="v" k="30" />
    <hkern u1="B" u2="Y" k="30" />
    <hkern u1="B" u2="W" k="30" />
    <hkern u1="B" u2="V" k="30" />
    <hkern u1="D" u2="Y" k="30" />
    <hkern u1="D" u2="V" k="35" />
    <hkern u1="D" u2="J" k="20" />
    <hkern u1="D" u2="C" k="15" />
    <hkern u1="D" u2="A" k="30" />
    <hkern u1="D" u2="&#x2e;" k="20" />
    <hkern u1="D" u2="&#x2c;" k="30" />
    <hkern u1="F" u2="A" k="30" />
    <hkern u1="F" u2="&#x2e;" k="80" />
    <hkern u1="F" u2="&#x2c;" k="60" />
    <hkern u1="K" u2="C" k="50" />
    <hkern u1="L" u2="&#x201d;" k="70" />
    <hkern u1="L" u2="&#x2019;" k="85" />
    <hkern u1="L" u2="Y" k="50" />
    <hkern u1="L" u2="V" k="55" />
    <hkern u1="L" u2="U" k="19" />
    <hkern u1="L" u2="T" k="65" />
    <hkern u1="L" u2="C" k="30" />
    <hkern u1="N" u2="C" k="50" />
    <hkern u1="P" u2="_" k="50" />
    <hkern u1="P" u2="A" k="40" />
    <hkern u1="P" u2="&#x3a;" k="10" />
    <hkern u1="P" u2="&#x2e;" k="50" />
    <hkern u1="P" u2="&#x2c;" k="40" />
    <hkern u1="Q" u2="U" k="50" />
    <hkern u1="R" u2="Y" k="40" />
    <hkern u1="R" u2="V" k="30" />
    <hkern u1="R" u2="C" k="20" />
    <hkern u1="R" u2="A" k="-20" />
    <hkern u1="S" u2="C" k="10" />
    <hkern u1="S" u2="A" k="20" />
    <hkern u1="T" u2="C" k="40" />
    <hkern u1="T" u2="A" k="55" />
    <hkern u1="T" u2="&#x3a;" k="50" />
    <hkern u1="T" u2="&#x2e;" k="50" />
    <hkern u1="T" u2="&#x2c;" k="50" />
    <hkern u1="U" u2="A" k="30" />
    <hkern u1="V" u2="C" k="30" />
    <hkern u1="V" u2="A" k="70" />
    <hkern u1="V" u2="&#x3a;" k="40" />
    <hkern u1="V" u2="&#x2e;" k="60" />
    <hkern u1="V" u2="&#x2c;" k="40" />
    <hkern u1="W" u2="C" k="30" />
    <hkern u1="W" u2="A" k="70" />
    <hkern u1="W" u2="&#x3a;" k="40" />
    <hkern u1="W" u2="&#x2e;" k="60" />
    <hkern u1="W" u2="&#x2c;" k="40" />
    <hkern u1="X" u2="C" k="30" />
    <hkern u1="X" u2="A" k="-10" />
    <hkern u1="Y" u2="J" k="60" />
    <hkern u1="Y" u2="C" k="30" />
    <hkern u1="Y" u2="A" k="40" />
    <hkern u1="Y" u2="&#x3a;" k="40" />
    <hkern u1="Y" u2="&#x2e;" k="50" />
    <hkern u1="Y" u2="&#x2c;" k="40" />
    <hkern u1="Z" u2="C" k="10" />
    <hkern u1="b" u2="o" k="15" />
    <hkern u1="b" u2="g" k="15" />
    <hkern u1="b" u2="c" k="15" />
    <hkern u1="b" u2="O" k="15" />
    <hkern u1="b" u2="G" k="15" />
    <hkern u1="b" u2="C" k="15" />
    <hkern u1="d" u2="Y" k="30" />
    <hkern u1="d" u2="V" k="35" />
    <hkern u1="d" u2="J" k="20" />
    <hkern u1="d" u2="C" k="15" />
    <hkern u1="d" u2="A" k="30" />
    <hkern u1="d" u2="&#x2e;" k="20" />
    <hkern u1="d" u2="&#x2c;" k="30" />
    <hkern u1="f" u2="A" k="30" />
    <hkern u1="f" u2="&#x2e;" k="80" />
    <hkern u1="f" u2="&#x2c;" k="60" />
    <hkern u1="k" u2="C" k="50" />
    <hkern u1="l" u2="&#x201d;" k="70" />
    <hkern u1="l" u2="&#x2019;" k="85" />
    <hkern u1="l" u2="Y" k="50" />
    <hkern u1="l" u2="V" k="55" />
    <hkern u1="l" u2="U" k="19" />
    <hkern u1="l" u2="T" k="65" />
    <hkern u1="l" u2="C" k="30" />
    <hkern u1="n" u2="C" k="50" />
    <hkern u1="p" u2="_" k="50" />
    <hkern u1="p" u2="A" k="40" />
    <hkern u1="p" u2="&#x3a;" k="10" />
    <hkern u1="p" u2="&#x2e;" k="50" />
    <hkern u1="p" u2="&#x2c;" k="40" />
    <hkern u1="q" u2="U" k="50" />
    <hkern u1="r" u2="Y" k="40" />
    <hkern u1="r" u2="V" k="30" />
    <hkern u1="r" u2="C" k="20" />
    <hkern u1="r" u2="A" k="-20" />
    <hkern u1="s" u2="C" k="10" />
    <hkern u1="s" u2="A" k="20" />
    <hkern u1="t" u2="C" k="40" />
    <hkern u1="t" u2="A" k="55" />
    <hkern u1="t" u2="&#x3a;" k="50" />
    <hkern u1="t" u2="&#x2e;" k="50" />
    <hkern u1="t" u2="&#x2c;" k="50" />
    <hkern u1="u" u2="A" k="30" />
    <hkern u1="v" u2="C" k="30" />
    <hkern u1="v" u2="A" k="70" />
    <hkern u1="v" u2="&#x3a;" k="40" />
    <hkern u1="v" u2="&#x2e;" k="60" />
    <hkern u1="v" u2="&#x2c;" k="40" />
    <hkern u1="w" u2="C" k="30" />
    <hkern u1="w" u2="A" k="70" />
    <hkern u1="w" u2="&#x3a;" k="40" />
    <hkern u1="w" u2="&#x2e;" k="60" />
    <hkern u1="w" u2="&#x2c;" k="40" />
    <hkern u1="x" u2="C" k="30" />
    <hkern u1="x" u2="A" k="-10" />
    <hkern u1="y" u2="J" k="60" />
    <hkern u1="y" u2="C" k="30" />
    <hkern u1="y" u2="A" k="40" />
    <hkern u1="y" u2="&#x3a;" k="40" />
    <hkern u1="y" u2="&#x2e;" k="50" />
    <hkern u1="y" u2="&#x2c;" k="40" />
    <hkern u1="z" u2="C" k="10" />
    <hkern g1="A,a"
	g2="S,s"
	k="25" />
    <hkern g1="A,a"
	g2="V,W,v,w"
	k="50" />
    <hkern g1="A,a"
	g2="T,t"
	k="50" />
    <hkern g1="A,a"
	g2="Y,y"
	k="50" />
    <hkern g1="A,a"
	g2="C,G,O,c,g,o"
	k="45" />
    <hkern g1="A,a"
	g2="Q,q"
	k="30" />
    <hkern g1="C,G,O,c,g,o"
	g2="V,W,v,w"
	k="40" />
    <hkern g1="C,G,O,c,g,o"
	g2="T,t"
	k="10" />
    <hkern g1="C,G,O,c,g,o"
	g2="Y,y"
	k="10" />
    <hkern g1="C,G,O,c,g,o"
	g2="C,G,O,c,g,o"
	k="15" />
    <hkern g1="C,G,O,c,g,o"
	g2="Q,q"
	k="60" />
    <hkern g1="C,G,O,c,g,o"
	g2="U,u"
	k="20" />
    <hkern g1="D,d"
	g2="V,W,v,w"
	k="35" />
    <hkern g1="D,d"
	g2="Y,y"
	k="30" />
    <hkern g1="D,d"
	g2="C,G,O,c,g,o"
	k="15" />
    <hkern g1="D,d"
	g2="A,a"
	k="30" />
    <hkern g1="D,d"
	g2="J,j"
	k="20" />
    <hkern g1="K,k"
	g2="C,G,O,c,g,o"
	k="50" />
    <hkern g1="L,l"
	g2="V,W,v,w"
	k="55" />
    <hkern g1="L,l"
	g2="T,t"
	k="65" />
    <hkern g1="L,l"
	g2="Y,y"
	k="50" />
    <hkern g1="L,l"
	g2="C,G,O,c,g,o"
	k="30" />
    <hkern g1="L,l"
	g2="U,u"
	k="19" />
    <hkern g1="R,r"
	g2="V,W,v,w"
	k="30" />
    <hkern g1="R,r"
	g2="Y,y"
	k="40" />
    <hkern g1="R,r"
	g2="C,G,O,c,g,o"
	k="20" />
    <hkern g1="R,r"
	g2="A,a"
	k="-20" />
    <hkern g1="S,s"
	g2="C,G,O,c,g,o"
	k="10" />
    <hkern g1="S,s"
	g2="A,a"
	k="20" />
    <hkern g1="T,t"
	g2="C,G,O,c,g,o"
	k="40" />
    <hkern g1="T,t"
	g2="A,a"
	k="55" />
    <hkern g1="T,t"
	g2="colon,semicolon"
	k="50" />
    <hkern g1="V,W,v,w"
	g2="C,G,O,c,g,o"
	k="30" />
    <hkern g1="V,W,v,w"
	g2="A,a"
	k="70" />
    <hkern g1="V,W,v,w"
	g2="colon,semicolon"
	k="40" />
    <hkern g1="X,x"
	g2="C,G,O,c,g,o"
	k="30" />
    <hkern g1="X,x"
	g2="A,a"
	k="-10" />
    <hkern g1="Y,y"
	g2="C,G,O,c,g,o"
	k="30" />
    <hkern g1="Y,y"
	g2="A,a"
	k="40" />
    <hkern g1="Y,y"
	g2="J,j"
	k="60" />
    <hkern g1="Y,y"
	g2="colon,semicolon"
	k="40" />
    <hkern g1="N,n"
	g2="C,G,O,c,g,o"
	k="50" />
    <hkern g1="P,p"
	g2="A,a"
	k="40" />
    <hkern g1="P,p"
	g2="colon,semicolon"
	k="10" />
    <hkern g1="Z,z"
	g2="C,G,O,c,g,o"
	k="10" />
    <hkern g1="U,u"
	g2="A,a"
	k="30" />
    <hkern g1="comma,period"
	g2="V,W,v,w"
	k="40" />
    <hkern g1="F,f"
	g2="A,a"
	k="30" />
    <hkern g1="Q,q"
	g2="U,u"
	k="50" />
  </font>
</defs></svg>
